<?xml version="1.0" encoding="UTF-8"?>
<testsuite name="com.konasl.endtoendtest.specification.APITestSpec" tests="3" skipped="2" failures="0" errors="0" timestamp="2021-11-04T13:45:08" hostname="LAPTOP-HMFUJK93" time="0.805">
  <properties/>
  <testcase name="(#scenarioSerial) Get User Details" classname="com.konasl.endtoendtest.specification.APITestSpec" time="0.0">
    <skipped/>
  </testcase>
  <testcase name="(#scenarioSerial) User Login" classname="com.konasl.endtoendtest.specification.APITestSpec" time="0.0">
    <skipped/>
  </testcase>
  <testcase name="(001) Get User Info" classname="com.konasl.endtoendtest.specification.APITestSpec" time="0.794"/>
  <system-out><![CDATA[2021-11-04 19:45:08,190 [Test worker] INFO  com.konasl.endtoendtest.configuration.Configuration -  Load Properties 
2021-11-04 19:45:08,203 [Test worker] INFO  com.konasl.endtoendtest.specification.APITestSpec -  Setup Spec method executed... 
2021-11-04 19:45:08,219 [Test worker] INFO  com.konasl.endtoendtest.specification.APITestSpec -  

============================== Scenario - (001) Get User Info ==============================
 
2021-11-04 19:45:08,419 [Test worker] INFO  com.konasl.endtoendtest.httprequesthelper.UserRegistrationRequestHelper -  
Request URL: https://reqres.in/api/users
Request data : {"page":2} 
2021-11-04 19:45:09,001 [Test worker] INFO  com.konasl.endtoendtest.httprequesthelper.UserRegistrationRequestHelper -  
Response data : {"data":[{"avatar":"https://reqres.in/img/faces/7-image.jpg","email":"michael.lawson@reqres.in","first_name":"Michael","id":7,"last_name":"Lawson"},{"avatar":"https://reqres.in/img/faces/8-image.jpg","email":"lindsay.ferguson@reqres.in","first_name":"Lindsay","id":8,"last_name":"Ferguson"},{"avatar":"https://reqres.in/img/faces/9-image.jpg","email":"tobias.funke@reqres.in","first_name":"Tobias","id":9,"last_name":"Funke"},{"avatar":"https://reqres.in/img/faces/10-image.jpg","email":"byron.fields@reqres.in","first_name":"Byron","id":10,"last_name":"Fields"},{"avatar":"https://reqres.in/img/faces/11-image.jpg","email":"george.edwards@reqres.in","first_name":"George","id":11,"last_name":"Edwards"},{"avatar":"https://reqres.in/img/faces/12-image.jpg","email":"rachel.howell@reqres.in","first_name":"Rachel","id":12,"last_name":"Howell"}],"page":2,"per_page":6,"support":{"text":"To keep ReqRes free, contributions towards server costs are appreciated!","url":"https://reqres.in/#support-heading"},"total":12,"total_pages":2} 
]]></system-out>
  <system-err><![CDATA[]]></system-err>
</testsuite>
